{
  "nextId" : 3,
  "items": [  {
    "id": 1,
    "login": "admin",
    "fullname": "Admin Admin",
    "role" : 1,
    "registeredAt" : "2020-09-05",
    "avaUrl" : "",
    "isEnabled" : 1
  },
  {
    "id": 2,
    "login": "testUser",
    "fullname": "Test User",
    "role" : 0,
    "registeredAt" : "2020-09-05",
    "avaUrl" : "",
    "isEnabled" : 1
  }]
}
