{
  "nextId": 46,
  "items": [
    {
      "id": 1,
      "tour_operator": "TUI",
      "country": "Turkey",
      "duration": 10,
      "cost": 155,
      "date": "2021-10-05T12:30:00.000Z"
    },
    {
      "id": 2,
      "tour_operator": "good",
      "country": "uk",
      "duration": 16,
      "cost": 11,
      "date": "2020-09-05"
    },
    {
      "id": 27,
      "tour_operator": "upds",
      "country": "Uk",
      "duration": 10,
      "cost": 32,
      "date": "2003-04-15T12:15:00.000Z"
    },
    {
      "id": 33,
      "tour_operator": "post",
      "country": "UK",
      "duration": 22,
      "cost": 15,
      "date": "2011-08-30T02:10:00.000Z"
    },
    {
      "tour_operator": "postman",
      "country": "postman",
      "duration": 10,
      "cost": 155,
      "date": "2022-10-05T12:30:00.000Z",
      "id": 35
    },
    {
      "id": 36,
      "tour_operator": "cahgned",
      "country": "fdsafdsafdsafdsa",
      "duration": 11110,
      "cost": 155,
      "date": "2023-10-05T12:30:00.000Z"
    }
  ]
}