{
  "nextId": 35,
  "items": [
    {
      "id": 1,
      "tour_operator": "TUI",
      "country": "Turkey",
      "duration": 10,
      "cost": 155,
      "date": "2021-10-05T12:30:00.000Z"
    },
    {
      "id": 2,
      "tour_operator": "good",
      "country": "uk",
      "duration": 16,
      "cost": 11,
      "date": "2020-09-05"
    },
    {
      "id": 27,
      "tour_operator": "upds",
      "country": "Uk",
      "duration": 10,
      "cost": 32,
      "date": "2003-04-15T12:15:00.000Z"
    },
    {
      "id": 33,
      "tour_operator": "post",
      "country": "UK",
      "duration": 22,
      "cost": 15,
      "date": "2011-08-30T02:10:00.000Z"
    },
    {
      "id": 34,
      "tour_operator": "new",
      "country": "UA",
      "duration": 19,
      "cost": 15,
      "date": "2200-03-15T13:15:00.000Z"
    }
  ]
}