{
    "vacations" : ["6021641dfc1a7c07edae8d69", "60216448fc1a7c07edae8d69"],
    "login" : "AnotherOne",
    "fullname" : "One",
    "role" : false,
    "registeredAt" : "2020-11-05T00:00:00.000Z",
    "avaUrl" : "",
    "isEnabled" : true
}


